/home/testmachine/compiler2016-testcases/passed/basicopt1-5100309127-hetianxing : 556812
/home/testmachine/compiler2016-testcases/passed/bulgarian-5110379024-wuhang : 810887
/home/testmachine/compiler2016-testcases/passed/expr-5110309085-jintianxing : 12445
/home/testmachine/compiler2016-testcases/passed/hanoi-5100379110-daibo : 72680
/home/testmachine/compiler2016-testcases/passed/hashmap-5100309127-hetianxing : 296663
/home/testmachine/compiler2016-testcases/passed/heapsort-5100379110-daibo : 8882349
/home/testmachine/compiler2016-testcases/passed/horse2-5100309153-yanghuan : 9483693
/home/testmachine/compiler2016-testcases/passed/horse3-5100309153-yanghuan : 15226417
/home/testmachine/compiler2016-testcases/passed/horse-5100309153-yanghuan : 13382852
/home/testmachine/compiler2016-testcases/passed/magic-5100309153-yanghuan : 1580306
/home/testmachine/compiler2016-testcases/passed/maxflow-5100379110-daibo : 9066678
/home/testmachine/compiler2016-testcases/passed/prime-5100309153-yanghuan : 3607919
/home/testmachine/compiler2016-testcases/passed/qsort-5100379110-daibo : 2094317
/home/testmachine/compiler2016-testcases/passed/queens-5100379110-daibo : 725157
/home/testmachine/compiler2016-testcases/passed/spill2-5100379110-daibo : 18442
/home/testmachine/compiler2016-testcases/passed/superloop-5090379042-jiaxiao : 1853504
/home/testmachine/compiler2016-testcases/passed/tak-5090379042-jiaxiao : 1788740
/home/testmachine/compiler2016-testcases/passed/twinprime-5090379042-jiaxiao : 923681
count: 48/48
