/home/testmachine/compiler2016-testcases/passed/basicopt1-5100309127-hetianxing : 548295
/home/testmachine/compiler2016-testcases/passed/bulgarian-5110379024-wuhang : 1298616
/home/testmachine/compiler2016-testcases/passed/expr-5110309085-jintianxing : 37947
/home/testmachine/compiler2016-testcases/passed/hanoi-5100379110-daibo : 298877
/home/testmachine/compiler2016-testcases/passed/hashmap-5100309127-hetianxing : 509595
/home/testmachine/compiler2016-testcases/passed/heapsort-5100379110-daibo : 12288823
/home/testmachine/compiler2016-testcases/passed/horse2-5100309153-yanghuan : 7381368
/home/testmachine/compiler2016-testcases/passed/horse3-5100309153-yanghuan : 11813832
/home/testmachine/compiler2016-testcases/passed/horse-5100309153-yanghuan : 9243900
/home/testmachine/compiler2016-testcases/passed/magic-5100309153-yanghuan : 1294877
/home/testmachine/compiler2016-testcases/passed/maxflow-5100379110-daibo : 14677571
/home/testmachine/compiler2016-testcases/passed/prime-5100309153-yanghuan : 4871002
/home/testmachine/compiler2016-testcases/passed/qsort-5100379110-daibo : 3452666
/home/testmachine/compiler2016-testcases/passed/queens-5100379110-daibo : 832793
/home/testmachine/compiler2016-testcases/passed/spill2-5100379110-daibo : 65283
/home/testmachine/compiler2016-testcases/passed/superloop-5090379042-jiaxiao : 2834711
/home/testmachine/compiler2016-testcases/passed/tak-5090379042-jiaxiao : 1803941
/home/testmachine/compiler2016-testcases/passed/twinprime-5090379042-jiaxiao : 1243383
count: 48/48
