/home/testmachine/compiler2016-testcases/passed/basicopt1-5100309127-hetianxing : 57288
/home/testmachine/compiler2016-testcases/passed/bulgarian-5110379024-wuhang : 4229166
/home/testmachine/compiler2016-testcases/passed/expr-5110309085-jintianxing : 248275
/home/testmachine/compiler2016-testcases/passed/hanoi-5100379110-daibo : 932645
/home/testmachine/compiler2016-testcases/passed/hashmap-5100309127-hetianxing : 544774
/home/testmachine/compiler2016-testcases/passed/heapsort-5100379110-daibo : FAILED
/home/testmachine/compiler2016-testcases/passed/horse2-5100309153-yanghuan : 11780808
/home/testmachine/compiler2016-testcases/passed/horse3-5100309153-yanghuan : 12285591
/home/testmachine/compiler2016-testcases/passed/horse-5100309153-yanghuan : FAILED
/home/testmachine/compiler2016-testcases/passed/magic-5100309153-yanghuan : FAILED
/home/testmachine/compiler2016-testcases/passed/maxflow-5100379110-daibo : 16827114
/home/testmachine/compiler2016-testcases/passed/prime-5100309153-yanghuan : 15181562
/home/testmachine/compiler2016-testcases/passed/qsort-5100379110-daibo : 4074857
/home/testmachine/compiler2016-testcases/passed/queens-5100379110-daibo : 5631443
/home/testmachine/compiler2016-testcases/passed/spill2-5100379110-daibo : FAILED
/home/testmachine/compiler2016-testcases/passed/statement_test-huyuncong : FAILED
/home/testmachine/compiler2016-testcases/passed/superloop-5090379042-jiaxiao : 1124302
/home/testmachine/compiler2016-testcases/passed/tak-5090379042-jiaxiao : 2697686
/home/testmachine/compiler2016-testcases/passed/twinprime-5090379042-jiaxiao : 4378269
count: 32/48
